%YAML 1.1
%TAG !u! tag:unity3d.com,2011:
--- !u!114 &11400000
MonoBehaviour:
  m_ObjectHideFlags: 0
  m_CorrespondingSourceObject: {fileID: 0}
  m_PrefabInternal: {fileID: 0}
  m_GameObject: {fileID: 0}
  m_Enabled: 1
  m_EditorHideFlags: 0
  m_Script: {fileID: 11500000, guid: 78e2f0f9721a8f74e916e1675113db15, type: 3}
  m_Name: Born1Info
  m_EditorClassIdentifier: Assembly-CSharp::SkillInfo
  Info: {fileID: 11400000, guid: de844a409bbabe346833b7fdb1b8f64e, type: 2}
  LifeCost: 0
  ManaCost: 0
  AgilCost: 0
  Particle: {fileID: 0}
  LifeRegen: 0
