%YAML 1.1
%TAG !u! tag:unity3d.com,2011:
--- !u!114 &11400000
MonoBehaviour:
  m_ObjectHideFlags: 0
  m_CorrespondingSourceObject: {fileID: 0}
  m_PrefabInternal: {fileID: 0}
  m_GameObject: {fileID: 0}
  m_Enabled: 1
  m_EditorHideFlags: 0
  m_Script: {fileID: 11500000, guid: 9fa529bb553493543b8ad9c65321737f, type: 3}
  m_Name: InfoB1
  m_EditorClassIdentifier: 
  Name: Dirty Water
  sprite: {fileID: 21300000, guid: d96923b213a983a4a83283c82b408f8d, type: 3}
  Short: "\u0412\u0430\u0448\u0430 \u043C\u0435\u0442\u043A\u043E\u0441\u0442\u044C
    \u0441\u043D\u0438\u0436\u0435\u043D\u0430, \u043D\u043E \u0443\u0432\u0435\u043B\u0438\u0447\u0435\u043D\u0430
    \u0430\u0442\u0430\u043A\u0430"
